identity,premium
45649,140000
45760,150000
6509,150000
45650,140000
46465,150000
45462,140000
45671,240000
45711,150000
384,140000
48170,150000
6416,160000
43176,390000
45566,180000
6640,140000
45678,140000
46259,30000
46345,30000
46481,30000
45531,30000
45679,30000
45602,30000
6556,30000
372,30000
46301,30000
281,30000
6319,30000
45871,30000
45656,30000
45693,30000
45556,30000
6573,30000
46136,30000
6451,30000
396,30000
6460,30000
45608,30000
46236,30000
368,30000
495,30000
46497,30000
377,30000
369,30000
339,30000
45753,30000
46366,30000
6180,30000
46290,30000
6315,30000
290,30000
6601,30000
6525,30000
538,30000
6138,30000
389,30000
234,30000
45707,30000
6102,30000
6005,30000
6107,30000
45590,30000
6452,30000
45927,30000
46171,30000
6097,30000
46215,30000
45987,30000
253,30000
294,30000
242,30000
6150,30000
6145,30000
467,30000
46153,30000
46119,30000
45715,30000
6035,30000
6611,30000
6016,30000
46419,30000
45755,30000
523,30000
46071,30000
6001,30000
45517,30000
6546,30000
533,30000
45703,30000
44031,30000
6069,30000
46030,30000
6632,30000
312,30000
6125,30000
45651,30000
45535,30000
309,30000
6506,30000
48169,30000
48174,30000
45661,30000
6577,30000
45694,30000
45992,30000
6616,30000
46424,30000
46120,30000
5988,30000
6321,30000
6113,30000
6590,30000
249,30000
6194,30000
46322,30000
6306,30000
45883,30000
6324,30000
48129,30000
45750,30000
45573,30000
45902,30000
6431,30000
370,30000
46002,30000
6417,30000
6626,30000
478,30000
46209,30000
6309,30000
6385,30000
6443,30000
46479,30000
45617,30000
46137,30000
46149,30000
46423,30000
6565,30000
46224,30000
6143,30000
6636,30000
550,30000
509,30000
45821,30000
6517,30000
6644,30000
48148,30000
463,30000
46018,30000
45747,30000
387,30000
6288,30000
46006,30000
45744,30000
6361,30000
46176,30000
45939,30000
46155,30000
45752,30000
6564,30000
315,30000
6521,30000
6105,30000
46101,30000
6529,30000
45488,30000
542,30000
6627,30000
240,30000
46488,30000
46192,30000
45778,30000
48160,30000
46390,30000
45496,30000
6371,30000
46355,30000
45655,30000
6071,30000
278,30000
48159,30000
45921,30000
317,30000
217,30000
6374,30000
6047,30000
46084,30000
6362,30000
6469,30000
48120,30000
6571,30000
411,30000
46438,30000
46418,30000
45570,30000
258,30000
45560,30000
489,30000
359,30000
6568,30000
45632,30000
45696,30000
48123,30000
45504,30000
474,30000
46187,30000
46282,30000
485,30000
45579,30000
46410,30000
524,30000
314,30000
299,30000
46508,30000
6466,30000
46302,30000
46412,30000
45708,30000
6352,30000
6629,30000
6621,30000
45731,30000
45730,30000
46456,30000
6356,30000
46304,30000
45659,30000
6589,30000
46220,30000
6587,30000
230,30000
45498,30000
45975,30000
6175,30000
45654,30000
6037,30000
6395,30000
45995,30000
6510,30000
6444,30000
46292,30000
45967,60000
386,60000
45918,60000
252,60000
46073,60000
6467,60000
6303,60000
6328,60000
6483,60000
45505,60000
45976,60000
6412,60000
6275,60000
46365,60000
321,60000
46152,60000
46476,60000
46186,60000
5995,60000
46038,60000
46405,60000
45722,60000
6042,60000
6595,60000
505,60000
6511,60000
46210,60000
45729,60000
46082,60000
45581,60000
46318,60000
45905,60000
46245,60000
46133,60000
6155,60000
45805,60000
6287,60000
46142,60000
45741,60000
45564,60000
45683,60000
6528,60000
45737,60000
46320,60000
6270,60000
45736,60000
45516,60000
45670,60000
45807,60000
46261,60000
45503,60000
46490,60000
45635,60000
6291,60000
46110,60000
6508,60000
45532,60000
48115,60000
6149,60000
6353,60000
6605,60000
45587,60000
6204,60000
48151,60000
449,60000
6092,60000
46118,60000
45615,60000
6532,60000
6345,60000
48134,60000
361,60000
45712,60000
6170,60000
45710,60000
529,60000
6043,60000
353,60000
45759,60000
6158,60000
45562,60000
45812,60000
45746,60000
6045,60000
6019,60000
6080,60000
6569,60000
6642,60000
418,60000
46510,60000
6331,60000
488,60000
6190,60000
6394,60000
450,60000
45611,60000
45687,60000
6620,60000
46281,60000
46409,60000
6530,60000
46081,60000
45705,60000
6297,60000
43178,60000
363,60000
6012,60000
434,60000
46306,60000
6415,60000
255,60000
45684,60000
45565,60000
45735,60000
46416,60000
501,60000
45484,60000
45723,60000
343,60000
45977,60000
45612,60000
46012,60000
46258,60000
46051,60000
226,60000
6156,60000
45637,60000
45749,60000
6229,60000
46163,60000
46122,60000
6421,60000
46022,60000
394,60000
45582,60000
6643,60000
46053,60000
6360,60000
45518,60000
6234,60000
431,60000
6014,60000
45745,60000
6604,60000
45881,60000
6082,60000
46300,60000
6410,60000
46123,60000
6372,60000
328,60000
6030,60000
45463,60000
48165,60000
45699,60000
439,60000
238,60000
6098,60000
45937,60000
6524,60000
6040,60000
324,60000
45938,60000
48142,120000
45985,120000
46453,120000
48147,120000
6219,120000
45689,120000
45508,120000
400,120000
6117,120000
46059,120000
6177,120000
43177,120000
436,120000
45761,120000
425,120000
45764,120000
6276,100000
548,100000
6448,100000
6168,100000
6007,100000
46041,100000
45849,100000
6311,100000
6449,100000
6259,100000
48118,100000
6148,100000
6169,100000
45882,100000
6344,100000
398,100000
6322,100000
6058,100000
45969,100000
46531,100000
444,20000
6413,20000
6354,20000
45709,20000
45738,20000
6064,20000
6602,20000
306,20000
46130,20000
45780,20000
45500,20000
45757,20000
6083,20000
45922,20000
6313,20000
6178,20000
6551,20000
6302,20000
48152,20000
45952,20000
6461,20000
45912,20000
257,20000
6053,20000
508,20000
45944,20000
45990,20000
46463,20000
6073,20000
45891,20000
428,20000
46039,20000
45874,20000
6243,20000
45742,20000
6025,20000
48150,20000
46050,20000
46408,20000
452,20000
46181,20000
45567,20000
6099,20000
45597,20000
46008,20000
385,20000
45804,20000
300,20000
6224,20000
46035,20000
6436,20000
6638,20000
46140,20000
45898,20000
6024,20000
2641,20000
6093,20000
46184,20000
45790,20000
6514,20000
442,20000
468,20000
331,20000
45837,20000
6094,20000
375,20000
6631,20000
356,20000
233,20000
46376,20000
45799,20000
6020,20000
45957,20000
6142,20000
6233,20000
46094,20000
6465,20000
45695,20000
45816,20000
6358,20000
46057,20000
308,20000
45768,20000
6198,20000
445,20000
45999,20000
46100,20000
536,20000
46425,20000
6403,20000
45970,20000
46439,20000
6342,20000
46400,20000
6628,20000
45931,20000
48139,20000
6086,20000
6059,20000
46371,20000
5994,20000
6147,20000
45609,20000
5998,20000
6367,20000
6161,20000
45786,20000
46520,20000
6468,20000
45698,20000
46068,20000
6000,20000
498,20000
6373,20000
46092,20000
48154,20000
46380,20000
45948,20000
220,20000
48114,20000
45622,20000
6245,20000
46097,20000
244,20000
6127,20000
45961,20000
45467,20000
45669,20000
46460,20000
479,20000
46375,20000
46485,20000
46385,20000
45558,20000
46025,20000
6554,20000
46240,20000
6407,20000
6600,20000
45493,20000
406,20000
46116,20000
6471,20000
46501,20000
48124,20000
6010,20000
6518,20000
48130,20000
45916,20000
344,20000
288,20000
494,20000
45644,20000
48135,20000
336,20000
46087,20000
6432,20000
6455,20000
451,20000
6618,20000
46052,20000
6199,20000
45814,20000
318,20000
6027,20000
6101,20000
45886,20000
531,20000
6491,20000
46117,20000
46027,20000
45853,20000
325,20000
45754,20000
46072,20000
45681,20000
45998,20000
6392,20000
388,20000
46532,20000
46314,20000
547,20000
46317,20000
6488,20000
6044,20000
48155,20000
6189,20000
45489,20000
46063,20000
46017,20000
6543,20000
6004,20000
6376,20000
358,20000
6507,20000
6237,20000
45982,20000
6558,20000
6624,20000
45776,20000
46332,20000
6570,20000
6612,20000
45645,20000
6516,20000
6583,20000
46028,20000
46108,20000
45633,20000
6246,20000
46228,20000
6561,20000
6325,20000
45604,20000
45994,20000
459,20000
6480,20000
6563,20000
46319,20000
335,20000
45527,20000
45900,20000
46093,20000
514,20000
46253,20000
6594,20000
6176,20000
45624,20000
45640,20000
45494,20000
46202,20000
6279,20000
6424,20000
46233,20000
546,20000
45880,20000
6422,20000
6607,20000
6584,20000
46500,20000
6531,20000
45872,20000
6323,20000
45839,20000
6610,20000
45831,20000
6357,20000
46060,20000
46489,20000
6197,20000
6453,20000
6312,20000
45704,20000
6264,20000
45863,20000
46522,20000
46096,20000
46125,20000
46526,20000
6475,20000
5992,20000
6301,20000
6162,20000
46042,20000
6112,20000
239,20000
45664,20000
46444,20000
320,20000
519,20000
329,20000
46129,20000
45785,20000
6347,20000
46515,20000
6109,20000
280,20000
518,20000
45543,20000
45909,20000
503,20000
422,20000
46091,20000
46166,20000
552,20000
46004,20000
397,20000
46109,20000
45751,20000
46310,20000
6298,20000
6290,20000
6186,20000
46541,20000
6108,20000
46112,20000
48163,20000
45986,20000
6326,20000
46533,20000
334,20000
45832,20000
45672,20000
6096,20000
6104,20000
46293,20000
48172,20000
46482,20000
46483,20000
6060,20000
6580,20000
46065,20000
45557,20000
46254,20000
6423,20000
46389,20000
6327,20000
6458,20000
46134,20000
6502,20000
46299,20000
45806,20000
6120,20000
237,20000
46237,20000
6253,20000
45864,20000
46289,20000
45946,20000
6405,20000
6274,20000
45478,20000
256,20000
46528,20000
46257,20000
45964,20000
6523,20000
6332,20000
45546,20000
45945,20000
6623,20000
46191,20000
6496,20000
46536,20000
6052,20000
6550,20000
46086,20000
48168,20000
6061,20000
6614,20000
269,20000
6366,20000
46487,20000
6217,20000
46045,20000
45718,20000
6260,20000
525,20000
6562,20000
6513,20000
403,20000
45819,20000
6512,20000
6464,20000
46165,20000
6320,20000
6351,20000
6166,20000
45869,20000
45739,20000
6434,20000
45770,20000
6495,20000
6384,20000
46263,20000
48161,20000
46426,20000
48166,20000
6333,20000
6477,20000
6048,20000
6126,20000
45788,20000
45932,20000
45824,20000
360,20000
438,20000
6420,20000
46107,20000
6135,20000
6609,20000
45592,20000
45643,20000
46061,20000
6433,20000
6566,20000
45857,20000
45572,20000
46471,20000
45843,20000
453,20000
6540,20000
482,20000
232,20000
45796,20000
45688,20000
46386,20000
46079,20000
6286,20000
46043,20000
46435,20000
6250,20000
409,20000
221,20000
46537,20000
46475,20000
373,20000
6409,20000
6119,20000
45984,20000
401,20000
413,20000
46443,20000
516,20000
6271,20000
45840,20000
6437,20000
45740,20000
46020,20000
405,20000
6355,20000
6165,20000
347,20000
6641,20000
6038,20000
46099,20000
6154,20000
6031,20000
340,20000
45779,20000
6625,20000
6187,20000
46044,20000
46204,20000
297,20000
46391,20000
45833,20000
6006,20000
46231,20000
6256,20000
6133,20000
46206,20000
46307,20000
415,20000
466,20000
46090,20000
376,20000
45908,20000
426,20000
45810,20000
6226,20000
276,20000
45923,20000
6227,20000
46174,20000
46296,20000
6597,20000
6081,20000
493,20000
45625,20000
6633,20000
48127,20000
283,20000
46534,20000
6359,20000
399,20000
45585,20000
6033,20000
45575,20000
45662,20000
48143,20000
45926,20000
45855,20000
46417,20000
417,20000
46033,20000
6615,20000
45818,20000
6055,20000
365,20000
6222,20000
46148,20000
5991,20000
491,20000
6124,20000
223,20000
46170,20000
46396,20000
6574,20000
289,20000
48117,20000
6248,20000
46378,20000
6159,20000
266,20000
6484,20000
45838,20000
6307,20000
46131,20000
6329,20000
46066,20000
6426,20000
6015,20000
46450,20000
6242,20000
245,20000
45828,20000
46509,20000
6338,20000
6191,20000
45629,20000
45940,20000
46374,20000
6285,20000
532,20000
6122,20000
46406,20000
543,20000
46339,20000
430,20000
46506,20000
45820,20000
6310,20000
46164,20000
528,20000
6440,20000
45676,20000
45700,20000
46013,20000
46404,20000
6262,20000
342,20000
6343,20000
48141,20000
45529,20000
248,20000
45978,20000
45559,20000
218,20000
6216,20000
6330,20000
45822,20000
6208,20000
45544,20000
6137,20000
45630,20000
46200,20000
349,20000
6195,20000
6050,20000
45466,20000
6454,20000
6062,20000
6548,20000
6039,20000
262,20000
45591,20000
461,20000
6505,20000
6134,20000
6487,20000
6269,20000
45861,20000
45809,20000
6447,20000
45859,20000
464,20000
46305,20000
6009,20000
6196,20000
46114,20000
6181,20000
6293,20000
250,20000
510,20000
6236,20000
6492,20000
512,20000
6021,20000
6129,20000
374,20000
6079,20000
45854,20000
6146,20000
46442,20000
45653,20000
6418,20000
45481,20000
6254,20000
45471,20000
6183,20000
46172,20000
46383,20000
5993,20000
6579,20000
6277,20000
46496,20000
46274,20000
402,20000
45797,20000
46360,20000
46260,20000
6221,20000
46543,20000
45989,20000
6560,20000
45901,20000
45965,20000
316,20000
5987,20000
46145,20000
6013,20000
46262,20000
45958,20000
46180,20000
46034,20000
6541,20000
46369,20000
6441,20000
6152,20000
46223,20000
6501,20000
46026,20000
272,20000
46437,20000
45690,20000
46363,20000
45506,20000
6235,20000
6603,20000
222,20000
46329,20000
46401,20000
46353,20000
45847,20000
45889,20000
6337,20000
45767,20000
352,20000
357,20000
45911,20000
46275,20000
6619,20000
45904,20000
346,20000
275,20000
6214,20000
6238,20000
46124,20000
46064,20000
46440,20000
6151,20000
46003,20000
6121,20000
45537,20000
46183,20000
432,20000
45851,20000
229,20000
48119,20000
45996,20000
48144,20000
265,20000
45769,20000
45981,20000
46103,20000
46505,20000
45955,20000
45717,20000
6369,20000
46205,20000
46021,20000
45479,20000
48125,20000
504,20000
45947,20000
46126,20000
6210,20000
45636,20000
6622,20000
46411,20000
6559,20000
227,20000
497,20000
6211,20000
279,20000
305,20000
6645,20000
296,20000
46268,20000
6350,20000
462,20000
6114,20000
6494,20000
46173,20000
48132,20000
46047,20000
6335,20000
45954,20000
45875,20000
330,20000
537,20000
45613,20000
46159,20000
6538,20000
45510,20000
46295,20000
6591,20000
48145,20000
6220,20000
48131,20000
45775,20000
286,20000
45766,20000
301,20000
45501,20000
6539,20000
6255,20000
492,20000
6456,20000
6261,20000
46351,20000
45521,20000
45507,20000
323,20000
46284,20000
355,20000
6090,20000
6445,20000
48149,20000
515,20000
6028,20000
6294,20000
45663,20000
46062,20000
437,20000
6544,20000
46244,20000
6586,20000
6429,20000
45852,20000
46078,20000
46225,20000
46356,20000
231,20000
6106,20000
6547,20000
322,20000
45728,20000
236,20000
45607,20000
6046,20000
6266,20000
6646,20000
247,20000
6503,20000
45795,20000
46278,20000
46308,20000
513,20000
45721,20000
45802,20000
45666,20000
46249,20000
6205,20000
48164,20000
326,20000
429,20000
6095,20000
507,20000
6498,20000
511,20000
46530,20000
521,20000
45813,20000
45862,20000
45903,20000
6041,20000
6408,20000
45719,20000
46185,20000
6462,20000
475,20000
6463,20000
424,20000
46169,20000
6172,20000
45782,20000
307,20000
284,20000
48128,20000
6068,20000
45846,20000
6257,20000
6263,20000
45971,20000
6348,20000
496,20000
6489,20000
6188,20000
45865,20000
6500,20000
6535,20000
6249,20000
6419,20000
6537,20000
6225,20000
45929,20000
46243,20000
6018,20000
6076,20000
6381,20000
6497,20000
45873,20000
6598,20000
45470,20000
6116,20000
45844,20000
46104,20000
45950,20000
6088,20000
45980,20000
500,20000
379,20000
45896,20000
46387,20000
392,20000
6457,20000
6557,20000
46127,20000
46168,20000
46227,20000
6292,20000
460,20000
448,20000
6118,20000
45826,20000
45962,20000
6593,20000
486,20000
46323,20000
46279,20000
380,20000
6504,20000
46468,20000
527,20000
6567,20000
6383,20000
404,20000
267,20000
46162,20000
6174,20000
45960,20000
465,20000
46054,20000
46448,20000
219,20000
45469,20000
45878,20000
45924,20000
6476,20000
45966,20000
6283,20000
45634,20000
46001,20000
45906,20000
46455,20000
6613,20000
45495,20000
46146,20000
45808,20000
6520,20000
6482,20000
6140,20000
46486,20000
6388,20000
45658,20000
6599,20000
455,20000
530,20000
549,20000
45815,20000
6258,20000
45836,20000
46474,20000
46024,20000
48156,20000
45842,20000
274,20000
6390,20000
45549,20000
45605,20000
332,20000
6639,20000
499,20000
6182,20000
304,20000
6074,20000
6459,20000
6473,20000
6049,20000
6295,20000
350,20000
45648,20000
46009,20000
46241,20000
48116,20000
45858,20000
6281,20000
45509,20000
517,20000
46031,20000
390,20000
6474,20000
45601,20000
46540,20000
6363,20000
310,20000
6089,20000
43175,20000
6549,20000
45614,20000
6144,20000
45541,20000
410,20000
6011,20000
6588,20000
45550,20000
45519,20000
46161,20000
6244,20000
367,20000
45551,20000
378,20000
46074,20000
45956,20000
45983,20000
45638,20000
45915,20000
241,20000
46214,20000
46056,20000
46461,20000
393,20000
45879,20000
6393,20000
46242,20000
6201,20000
48167,20000
5989,20000
46175,20000
45686,20000
45850,20000
46527,20000
45934,20000
5997,20000
45513,20000
45598,20000
6340,20000
421,20000
6272,20000
45928,20000
46504,20000
46415,20000
46076,20000
6278,20000
6378,20000
48121,20000
45974,20000
45499,20000
6427,20000
6522,20000
45979,20000
354,20000
46085,20000
46251,20000
472,20000
6268,20000
6003,20000
6163,20000
45856,20000
6339,20000
48173,20000
45933,20000
6072,20000
6634,20000
473,20000
6305,20000
6218,20000
433,20000
6078,20000
443,20000
251,20000
6411,20000
45599,20000
45920,20000
303,20000
46433,20000
6435,20000
6450,20000
6555,20000
46271,20000
45885,20000
46213,20000
46226,20000
45781,20000
6370,20000
45894,20000
5996,20000
6085,20000
6179,20000
6273,20000
45919,20000
46023,20000
48137,20000
46144,20000
46545,20000
45464,20000
46498,20000
45771,20000
6139,20000
46036,20000
45576,20000
6111,20000
6284,20000
46324,20000
45800,20000
416,20000
427,20000
45553,20000
45823,20000
45793,20000
6160,20000
46272,20000
45465,20000
46250,20000
6578,20000
6481,20000
254,20000
45925,20000
46397,20000
46037,20000
46326,20000
46000,20000
46083,20000
6230,20000
46334,20000
46246,20000
45524,20000
534,20000
470,20000
45866,20000
45888,20000
6346,20000
45774,20000
46058,20000
6314,20000
6103,20000
45803,20000
46470,20000
6153,20000
46014,20000
6032,20000
6022,20000
45789,20000
46394,20000
45642,20000
45787,20000
6606,20000
6036,20000
435,20000
45943,20000
45525,20000
6575,20000
6299,20000
345,20000
6386,20000
271,20000
46517,20000
46265,20000
46230,20000
6110,20000
6008,20000
6553,20000
45548,20000
48162,20000
45845,20000
6389,20000
522,20000
6265,20000
46398,20000
46067,20000
46229,20000
46447,20000
6141,20000
45910,20000
6132,20000
45835,20000
46413,20000
45571,20000
6029,20000
6131,20000
46048,20000
371,20000
420,20000
545,20000
526,20000
6075,20000
45497,20000
45991,20000
341,20000
6077,20000
6034,20000
6533,20000
45473,20000
6472,20000
458,20000
46049,20000
6247,20000
45877,20000
46458,20000
6100,20000
46393,20000
6519,20000
45930,20000
45534,20000
6398,20000
6318,20000
46352,20000
48126,20000
6526,20000
366,20000
48140,20000
45512,20000
46055,20000
6572,20000
46199,20000
45968,20000
45988,20000
46221,20000
263,20000
48136,20000
46382,20000
45917,20000
45552,20000
45646,20000
45596,20000
46189,20000
6576,20000
408,20000
46422,20000
45942,20000
6542,20000
46016,20000
6280,20000
45899,20000
46188,20000
6087,20000
48122,20000
45895,20000
46457,20000
45860,20000
45887,20000
46285,20000
45907,20000
48171,20000
6192,20000
46338,20000
544,20000
477,20000
46113,20000
259,20000
45951,20000
45868,20000
45935,20000
45502,20000
45584,20000
45623,20000
45870,20000
46182,20000
287,20000
46029,20000
6430,20000
381,20000
6428,20000
45756,20000
6336,20000
285,20000
46429,20000
45890,20000
45897,20000
46452,20000
319,20000
540,20000
6289,20000
46105,20000
6173,20000
48153,20000
292,20000
45884,20000
6349,20000
6202,20000
6317,20000
45491,20000
46089,20000
45667,20000
46316,20000
48138,20000
338,20000
348,20000
45586,20000
46377,20000
45959,20000
471,20000
46507,20000
45616,20000
46484,20000
6442,20000
6215,20000
45941,20000
46511,20000
45714,20000
45892,20000
6171,20000
456,40000
46427,40000
45706,40000
46102,40000
45526,40000
45773,40000
46367,40000
6334,40000
6479,40000
6251,40000
6365,40000
45834,40000
46441,40000
46315,40000
46154,40000
6240,40000
6402,40000
45539,40000
302,40000
440,40000
291,40000
364,40000
235,40000
6608,40000
46432,40000
46195,40000
327,40000
6070,40000
46312,40000
6213,40000
6066,40000
45825,40000
45914,40000
228,40000
45829,40000
6499,40000
46070,40000
45792,40000
6493,40000
6400,40000
6300,40000
6184,40000
487,40000
45594,40000
46247,40000
46335,40000
277,40000
45569,40000
46384,40000
45603,40000
46480,40000
6136,40000
295,40000
45772,40000
6130,40000
46266,40000
45936,40000
6017,40000
46238,40000
46516,40000
224,40000
45486,40000
46330,40000
6231,40000
45673,40000
6486,40000
46521,40000
45777,40000
46040,40000
484,40000
6382,40000
45817,40000
46005,40000
383,40000
46007,40000
45580,40000
6223,40000
520,40000
45972,40000
46267,40000
480,40000
46080,40000
45668,40000
45628,40000
6446,40000
45963,40000
46294,40000
6490,40000
6425,40000
46095,40000
46098,40000
6596,40000
45555,40000
293,40000
46077,40000
6635,40000
46280,40000
46359,40000
45589,40000
45515,40000
45547,40000
45665,40000
6545,40000
45578,40000
46361,40000
6128,40000
337,40000
6617,40000
46313,40000
6534,40000
6212,40000
5990,40000
45848,40000
6406,40000
282,40000
6364,40000
46198,40000
46514,40000
6379,40000
46158,40000
46138,40000
6375,40000
45574,40000
502,40000
45568,40000
333,40000
46430,40000
46467,40000
6084,40000
45953,40000
46544,40000
46283,40000
6167,40000
6308,40000
45716,40000
6470,40000
46519,40000
45733,40000
441,40000
6115,40000
45798,40000
6228,40000
457,40000
6396,40000
46150,40000
6439,40000
6051,40000
46336,40000
6054,40000
6203,40000
45791,40000
6552,40000
46327,40000
483,40000
45784,40000
6637,40000
45762,40000
551,40000
391,40000
469,40000
6063,40000
6157,40000
46179,40000
46115,40000
45472,40000
6282,40000
46288,40000
454,40000
313,40000
46347,40000
412,40000
46298,40000
46128,40000
6414,40000
46019,40000
446,40000
6380,40000
46388,40000
6207,40000
45627,40000
46211,40000
46512,40000
6401,40000
6387,40000
46201,40000
535,40000
6239,40000
395,40000
6065,40000
423,40000
362,40000
45993,40000
45811,40000
45913,40000
6091,40000
6164,40000
45588,40000
46264,40000
46492,40000
243,40000
5999,40000
539,40000
45763,40000
45554,40000
6057,40000
45758,40000
46010,40000
311,40000
48158,40000
6630,40000
45867,40000
45765,40000
46495,40000
46459,40000
6002,40000
46454,40000
351,40000
46032,40000
48157,40000
45827,40000
46469,40000
414,40000
6581,40000
6399,40000
6485,40000
506,40000
6209,40000
46132,40000
45563,40000
6232,40000
46354,40000
45483,40000
46218,40000
6056,40000
46395,40000
45523,40000
6252,40000
46434,40000
45830,40000
45522,40000
6026,40000
45783,40000
45487,40000
45997,40000
46111,40000
45973,40000
46513,40000
6316,40000
45677,40000
6206,40000
225,40000
45647,40000
46368,40000
46069,40000
46407,40000
6200,40000
46015,40000
46147,40000
45794,40000
46121,40000
6391,40000
45801,40000
6438,40000
261,40000
6304,40000
6478,40000
45949,40000
45685,40000
6123,40000
46088,40000
481,40000
6404,40000
268,40000
6296,40000
46518,40000
6582,40000
246,40000
45606,40000
6368,40000
419,40000
48133,40000
45701,40000
6536,40000
46276,40000
46046,80000
45727,80000
6397,80000
45610,80000
46106,80000
490,80000
273,80000
6267,80000
45734,80000
46348,80000
46075,80000
270,80000
45876,80000
6592,80000
45893,80000
447,80000
541,80000
45538,80000
45680,80000
6185,80000
46420,80000
46011,80000
6193,80000
6341,80000
553,80000
6241,80000
6067,80000
476,80000
260,80000
298,90000
45702,90000
407,90000
6023,90000
6585,90000
6527,90000
45841,90000
264,90000
382,90000
45713,90000
45720,90000
6377,90000
48146,90000
45743,90000
6515,90000