[2020-01-23 20:55:22,064] {taskinstance.py:655} INFO - Dependencies all met for <TaskInstance: my_simple_dag.sleep_me 2020-01-18T10:10:00+00:00 [None]>
[2020-01-23 20:55:22,077] {taskinstance.py:655} INFO - Dependencies all met for <TaskInstance: my_simple_dag.sleep_me 2020-01-18T10:10:00+00:00 [None]>
[2020-01-23 20:55:22,077] {taskinstance.py:866} INFO - 
--------------------------------------------------------------------------------
[2020-01-23 20:55:22,077] {taskinstance.py:867} INFO - Starting attempt 1 of 1
[2020-01-23 20:55:22,077] {taskinstance.py:868} INFO - 
--------------------------------------------------------------------------------
[2020-01-23 20:55:22,113] {taskinstance.py:887} INFO - Executing <Task(BashOperator): sleep_me> on 2020-01-18T10:10:00+00:00
[2020-01-23 20:55:22,118] {standard_task_runner.py:52} INFO - Started process 14683 to run task
[2020-01-23 20:55:22,216] {logging_mixin.py:112} INFO - [2020-01-23 20:55:22,215] {dagbag.py:403} INFO - Filling up the DagBag from /home/shourya97/Personel/placement-assignments/pasarpolis/airflow_home/dags/my_simple_dag.py
[2020-01-23 20:55:22,236] {logging_mixin.py:112} INFO - Running %s on host %s <TaskInstance: my_simple_dag.sleep_me 2020-01-18T10:10:00+00:00 [running]> ssg
[2020-01-23 20:55:22,250] {bash_operator.py:81} INFO - Tmp dir root location: 
 /tmp
[2020-01-23 20:55:22,251] {bash_operator.py:91} INFO - Exporting the following env vars:
AIRFLOW_CTX_DAG_OWNER=Airflow
AIRFLOW_CTX_DAG_ID=my_simple_dag
AIRFLOW_CTX_TASK_ID=sleep_me
AIRFLOW_CTX_EXECUTION_DATE=2020-01-18T10:10:00+00:00
AIRFLOW_CTX_DAG_RUN_ID=scheduled__2020-01-18T10:10:00+00:00
[2020-01-23 20:55:22,251] {bash_operator.py:105} INFO - Temporary script location: /tmp/airflowtmp84v55s8r/sleep_me7cq3tu2l
[2020-01-23 20:55:22,251] {bash_operator.py:115} INFO - Running command: sleep 5
[2020-01-23 20:55:22,256] {bash_operator.py:124} INFO - Output:
[2020-01-23 20:55:27,258] {bash_operator.py:132} INFO - Command exited with return code 0
[2020-01-23 20:55:32,026] {logging_mixin.py:112} INFO - [2020-01-23 20:55:32,026] {local_task_job.py:103} INFO - Task exited with return code 0
