[2020-01-21 20:58:43,337] {taskinstance.py:655} INFO - Dependencies all met for <TaskInstance: my_simple_dag.say_Hi 2020-01-18T09:40:00+00:00 [queued]>
[2020-01-21 20:58:43,347] {taskinstance.py:655} INFO - Dependencies all met for <TaskInstance: my_simple_dag.say_Hi 2020-01-18T09:40:00+00:00 [queued]>
[2020-01-21 20:58:43,347] {taskinstance.py:866} INFO - 
--------------------------------------------------------------------------------
[2020-01-21 20:58:43,347] {taskinstance.py:867} INFO - Starting attempt 1 of 1
[2020-01-21 20:58:43,347] {taskinstance.py:868} INFO - 
--------------------------------------------------------------------------------
[2020-01-21 20:58:43,377] {taskinstance.py:887} INFO - Executing <Task(BashOperator): say_Hi> on 2020-01-18T09:40:00+00:00
[2020-01-21 20:58:43,381] {standard_task_runner.py:52} INFO - Started process 18725 to run task
[2020-01-21 20:58:43,438] {logging_mixin.py:112} INFO - [2020-01-21 20:58:43,437] {dagbag.py:403} INFO - Filling up the DagBag from /home/shourya97/Personel/placement-assignments/pasarpolis/airflow_home/dags/my_simple_dag.py
[2020-01-21 20:58:43,457] {logging_mixin.py:112} INFO - Running %s on host %s <TaskInstance: my_simple_dag.say_Hi 2020-01-18T09:40:00+00:00 [running]> ssg
[2020-01-21 20:58:43,470] {bash_operator.py:81} INFO - Tmp dir root location: 
 /tmp
[2020-01-21 20:58:43,470] {bash_operator.py:91} INFO - Exporting the following env vars:
AIRFLOW_CTX_DAG_OWNER=Airflow
AIRFLOW_CTX_DAG_ID=my_simple_dag
AIRFLOW_CTX_TASK_ID=say_Hi
AIRFLOW_CTX_EXECUTION_DATE=2020-01-18T09:40:00+00:00
AIRFLOW_CTX_DAG_RUN_ID=scheduled__2020-01-18T09:40:00+00:00
[2020-01-21 20:58:43,471] {bash_operator.py:105} INFO - Temporary script location: /tmp/airflowtmpb1qkhv8q/say_Hiuouuu16b
[2020-01-21 20:58:43,471] {bash_operator.py:115} INFO - Running command: echo "Hi!!"
[2020-01-21 20:58:43,476] {bash_operator.py:124} INFO - Output:
[2020-01-21 20:58:43,477] {bash_operator.py:128} INFO - Hi!!
[2020-01-21 20:58:43,477] {bash_operator.py:132} INFO - Command exited with return code 0
